<?xml version="1.0" encoding="UTF-8"?>
<svg width="72px" height="30px" viewBox="0 0 72 30" version="1.1" xmlns="http://www.w3.org/2000/svg" xmlns:xlink="http://www.w3.org/1999/xlink">
    <!-- Generator: Sketch 53.2 (72643) - https://sketchapp.com -->
    <title>Group 13 Copy</title>
    <desc>Created with Sketch.</desc>
    <g id="Page-1" stroke="none" stroke-width="1" fill="none" fill-rule="evenodd">
        <g id="RV---Template---Signature-Copy-3" transform="translate(-459.000000, -754.000000)" fill="#C72528">
            <g id="Group-13-Copy" transform="translate(459.000000, 754.000000)">
                <path d="M39.4857143,13.8342857 L42.7428571,13.8342857 C44.5942857,13.8342857 45.3485714,13.1828571 45.3485714,11.88 C45.3485714,10.1657143 44.1657143,9.94285714 42.7428571,9.94285714 L39.4857143,9.94285714 L39.4857143,13.8342857 Z M37.8571429,8.57142857 L42.2971429,8.57142857 C43.3428571,8.57142857 44.8342857,8.57142857 45.5371429,9.01714286 C46.3428571,9.49714286 46.9771429,10.3371429 46.9771429,11.5714286 C46.9771429,12.8742857 46.3257143,13.8514286 45.16,14.3142857 L45.16,14.3485714 C46.6685714,14.6742857 47.4914286,15.7885714 47.4914286,17.2971429 C47.4914286,19.08 46.1885714,20.8114286 43.7714286,20.8114286 L37.8571429,20.8114286 L37.8571429,8.57142857 Z M39.4857143,19.44 L43.5657143,19.44 C45.0057143,19.44 45.8628571,18.6171429 45.8628571,17.2457143 C45.8628571,15.6514286 44.5771429,15.2057143 43.2057143,15.2057143 L39.4857143,15.2057143 L39.4857143,19.44 Z M49.5885714,8.57142857 L51.0457143,8.57142857 L51.0457143,20.8114286 L49.5885714,20.8114286 L49.5885714,8.57142857 Z M54.5142857,16.3885714 C54.5142857,18.5314286 55.7485714,19.7314286 57.2742857,19.7314286 C58.8,19.7314286 60.0342857,18.5314286 60.0342857,16.3885714 C60.0342857,14.2457143 58.8,13.0285714 57.2742857,13.0285714 C55.7485714,13.0285714 54.5142857,14.2457143 54.5142857,16.3885714 Z M52.9714286,16.3885714 C52.9714286,13.7828571 54.4628571,11.7428571 57.2742857,11.7428571 C60.0857143,11.7428571 61.5771429,13.7828571 61.5771429,16.3885714 C61.5771429,18.9942857 60.0857143,21 57.2742857,21 C54.4628571,21 52.9714286,18.9942857 52.9714286,16.3885714 Z M71.08,20.0571429 C71.08,22.9542857 69.7942857,24.3942857 66.9657143,24.3942857 C65.3028571,24.3942857 63.3828571,23.7085714 63.2971429,21.7885714 L64.7542857,21.7885714 C64.8057143,22.8342857 66.1085714,23.2285714 67.0514286,23.2285714 C68.9542857,23.2285714 69.7085714,21.8571429 69.7085714,19.8857143 L69.7085714,19.3028571 L69.6742857,19.3028571 C69.1771429,20.4 68.0628571,20.8971429 66.9142857,20.8971429 C64.2742857,20.8971429 62.9542857,18.84 62.9542857,16.4228571 C62.9542857,14.3142857 63.9657143,11.7428571 67.0514286,11.7428571 C68.1657143,11.7428571 69.16,12.24 69.6914286,13.2171429 L69.7085714,13.2171429 L69.7085714,11.9485714 L71.08,11.9485714 L71.08,20.0571429 Z M67,19.6285714 C68.92,19.6285714 69.64,17.8628571 69.64,16.2 C69.64,14.64 68.9542857,13.0285714 67.12,13.0285714 C65.2514286,13.0285714 64.4971429,14.5542857 64.4971429,16.2514286 C64.4971429,17.8457143 65.08,19.6285714 67,19.6285714 Z" id="Blog"></path>
                <g id="Group-3">
                    <g id="Group">
                        <path d="M0,29.8314 L29.7522201,29.8314 L29.7522201,0 L0,0 L0,29.8314 Z M0.766023166,29.0646 L28.9861969,29.0646 L28.9861969,0.7692 L0.766023166,0.7692 L0.766023166,29.0646 Z" id="Fill-1"></path>
                        <path d="M17.0753147,13.91322 C17.3015309,13.91322 17.4864537,13.87782 17.6288861,13.80462 C17.7725154,13.73322 17.8910097,13.63722 17.9861641,13.51962 C18.1405656,13.32702 18.2195618,13.11942 18.2195618,12.89022 C18.2195618,12.61662 18.1297934,12.39042 17.9508552,12.20922 C17.7605463,11.99502 17.4679015,11.88642 17.0753147,11.88642 L11.6227857,11.88642 C11.4438475,11.88642 11.3540792,11.97762 11.3540792,12.15642 L11.3540792,13.91322 L17.0753147,13.91322 Z M11.3540792,20.97162 L8.11942664,20.97162 L8.11942664,9.61122 C8.11942664,9.10902 8.38753475,8.85762 8.92315251,8.85762 L17.5038089,8.85762 C18.2548707,8.85762 18.8748707,8.96322 19.3644073,9.17262 C19.8521486,9.38142 20.2626892,9.65982 20.5966274,10.00482 C20.8940598,10.31622 21.1292529,10.67742 21.302805,11.09022 C21.4757587,11.50182 21.5631332,11.93502 21.5631332,12.39042 C21.5631332,12.87702 21.4781525,13.34262 21.3117819,13.77822 C21.1454112,14.21502 20.8473803,14.58702 20.4182876,14.89782 C20.8228436,15.13722 21.1172838,15.44262 21.302805,15.81102 C21.4877278,16.18182 21.57989,16.71522 21.57989,17.40822 L21.57989,19.82682 C21.57989,20.08962 21.5828822,20.30502 21.5888668,20.47062 C21.5948514,20.63982 21.6086158,20.80662 21.633751,20.97162 L18.3619942,20.97162 C18.3254884,20.71122 18.3093301,20.44302 18.3093301,20.16642 L18.3093301,17.74782 C18.3093301,17.36502 18.2069942,17.09142 18.0047162,16.92402 C17.8024382,16.75602 17.461917,16.67202 16.9867432,16.67202 L11.3540792,16.67202 L11.3540792,20.97162 Z" id="Fill-2"></path>
                    </g>
                </g>
            </g>
        </g>
    </g>
</svg>