<?xml version="1.0" encoding="UTF-8"?>
<svg width="24px" height="24px" viewBox="0 0 24 24" version="1.1" xmlns="http://www.w3.org/2000/svg" xmlns:xlink="http://www.w3.org/1999/xlink">
    <!-- Generator: sketchtool 52.5 (67469) - http://www.bohemiancoding.com/sketch -->
    <title>D52F80F3-29CD-4CFC-8850-33BBAD22E791</title>
    <desc>Created with sketchtool.</desc>
    <g id="About" stroke="none" stroke-width="1" fill="none" fill-rule="evenodd">
        <g id="RVm---Minisite---About-A" transform="translate(-220.000000, -685.000000)" fill="#337588">
            <g id="Group-14" transform="translate(220.000000, 685.000000)">
                <path d="M8.25,12.000375 L15.74925,12.000375 C16.164,12.000375 16.5,12.3356145 16.5,12.7503516 C16.5,13.1643386 16.164,13.5003281 15.74925,13.5003281 L8.25,13.5003281 C7.836,13.5003281 7.5,13.1643386 7.5,12.7503516 C7.5,12.3356145 7.836,12.000375 8.25,12.000375 M17.25,9.00046874 L6.75,9.00046874 C6.336,9.00046874 6,8.66447924 6,8.25049217 C6,7.83650511 6.336,7.50051561 6.75,7.50051561 L17.25,7.50051561 C17.664,7.50051561 18,7.83650511 18,8.25049217 C18,8.66447924 17.664,9.00046874 17.25,9.00046874 M12,1.49995313 C6.201,1.49995313 1.5,5.5295772 1.5,10.5004219 C1.5,13.5483266 3.291,16.2129933 6.00075,17.8366926 L6,21.7493203 L10.50075,19.5008906 C10.50075,19.5008906 10.2795,19.5001406 12,19.5001406 C17.799,19.5001406 22.5,15.4705165 22.5,10.5004219 C22.5,5.5295772 17.799,1.49995313 12,1.49995313 M12,21.0000937 C11.541,21.0000937 11.09025,20.9723446 10.64475,20.928096 L4.5,24 L4.5,18.689416 C1.75875,16.7649761 0,13.8145683 0,10.5004219 C0,4.7008531 5.373,0 12,0 C18.627,0 24,4.7008531 24,10.5004219 C24,16.2992406 18.627,21.0000937 12,21.0000937" id="Fill-1"></path>
            </g>
        </g>
    </g>
</svg>