<?xml version="1.0" encoding="UTF-8"?>
<svg width="110px" height="30px" viewBox="0 0 110 30" version="1.1" xmlns="http://www.w3.org/2000/svg" xmlns:xlink="http://www.w3.org/1999/xlink">
    <!-- Generator: Sketch 53.2 (72643) - https://sketchapp.com -->
    <title>Group 15</title>
    <desc>Created with Sketch.</desc>
    <g id="Page-1" stroke="none" stroke-width="1" fill="none" fill-rule="evenodd">
        <g id="RV---Template---Signature-Copy-3" transform="translate(-316.000000, -754.000000)" fill="#C72528">
            <g id="Group-15" transform="translate(316.000000, 754.000000)">
                <path d="M0,29.5301786 L29.5291071,29.5301786 L29.5291071,-7.10542736e-15 L0,-7.10542736e-15 L0,29.5301786 Z M0.761785714,28.7716071 L28.7683929,28.7716071 L28.7683929,0.761785714 L0.761785714,0.761785714 L0.761785714,28.7716071 Z" id="Fill-1"></path>
                <g id="Group-14" transform="translate(8.035714, 8.637321)">
                    <path d="M8.91257143,5.13551786 C9.1365,5.13551786 9.31971429,5.10123214 9.46114286,5.02730357 C9.60364286,4.957125 9.72096429,4.86283929 9.81578571,4.74551786 C9.96953571,4.55533929 10.0472143,4.349625 10.0472143,4.12355357 C10.0472143,3.85194643 9.95775,3.62855357 9.78096429,3.44908929 C9.59239286,3.23748214 9.30203571,3.12873214 8.91257143,3.12873214 L3.50025,3.12873214 C3.32292857,3.12873214 3.23346429,3.21980357 3.23346429,3.39658929 L3.23346429,5.13551786 L8.91257143,5.13551786 Z M3.23346429,12.1228393 L0.0234642857,12.1228393 L0.0234642857,0.877125 C0.0234642857,0.380517857 0.289714286,0.130875 0.821142857,0.130875 L9.33739286,0.130875 C10.0825714,0.130875 10.6975714,0.235875 11.1829286,0.443196429 C11.66775,0.649982143 12.0748929,0.925339286 12.4059643,1.267125 C12.70275,1.57516071 12.9357857,1.93248214 13.1072143,2.34069643 C13.2786429,2.74891071 13.3654286,3.17748214 13.3654286,3.62855357 C13.3654286,4.11016071 13.2813214,4.570875 13.1163214,5.002125 C12.9507857,5.43444643 12.6556071,5.80301786 12.2291786,6.11051786 C12.6320357,6.34730357 12.9229286,6.64944643 13.1072143,7.01426786 C13.2915,7.38123214 13.3831071,7.90891071 13.3831071,8.59516071 L13.3831071,10.9898036 C13.3831071,11.2501607 13.3857857,11.463375 13.3916786,11.6273036 C13.3970357,11.7939107 13.4115,11.9589107 13.4350714,12.1228393 L10.1897143,12.1228393 C10.1532857,11.864625 10.1356071,11.5999821 10.1356071,11.3262321 L10.1356071,8.93158929 C10.1356071,8.55283929 10.0354286,8.28176786 9.83453571,8.11676786 C9.63364286,7.94908929 9.29560714,7.86605357 8.82310714,7.86605357 L3.23346429,7.86605357 L3.23346429,12.1228393 Z" id="Fill-2"></path>
                    <path d="M37.297875,5.1285 C37.522875,5.1285 37.706625,5.09475 37.8485893,5.02242857 C37.9921607,4.95064286 38.1089464,4.85742857 38.2032321,4.73903571 C38.3580536,4.55046429 38.4351964,4.34207143 38.4351964,4.116 C38.4351964,3.84332143 38.3468036,3.61992857 38.167875,3.44153571 C37.9782321,3.22725 37.6889464,3.12171429 37.297875,3.12171429 L31.879125,3.12171429 C31.7007321,3.12171429 31.6134107,3.21064286 31.6134107,3.38742857 L31.6134107,5.1285 L37.297875,5.1285 Z M31.6134107,12.12975 L28.3964464,12.12975 L28.3964464,0.865285714 C28.3964464,0.367607143 28.6632321,0.117428571 29.1957321,0.117428571 L37.7237679,0.117428571 C38.4700179,0.117428571 39.0871607,0.2235 39.5735893,0.42975 C40.057875,0.637071429 40.466625,0.912964286 40.7987679,1.25582143 C41.0939464,1.56546429 41.3275179,1.92117857 41.501625,2.33207143 C41.6730536,2.73921429 41.7576964,3.16885714 41.7576964,3.61992857 C41.7576964,4.10367857 41.6751964,4.56332143 41.5080536,4.99510714 C41.3435893,5.42903571 41.0468036,5.79760714 40.6198393,6.10617857 C41.0226964,6.34296429 41.3162679,6.64564286 41.501625,7.01153571 C41.6837679,7.37957143 41.7764464,7.90564286 41.7764464,8.5935 L41.7764464,10.9908214 C41.7764464,11.2517143 41.7780536,11.466 41.7844821,11.6304643 C41.7898393,11.7965357 41.8059107,11.9636786 41.8294821,12.12975 L38.576625,12.12975 C38.5418036,11.8693929 38.5246607,11.6015357 38.5246607,11.3315357 L38.5246607,8.93153571 C38.5246607,8.55332143 38.4234107,8.28010714 38.2219821,8.11403571 C38.0205536,7.9485 37.6830536,7.866 37.2100179,7.866 L31.6134107,7.866 L31.6134107,12.12975 Z" id="Fill-4"></path>
                    <path d="M55.9727679,0.117160714 L55.9727679,3.29983929 L46.839375,3.29983929 C46.6491964,3.29983929 46.554375,3.39948214 46.554375,3.59983929 L46.554375,4.97019643 L55.918125,4.97019643 L55.918125,7.417875 L46.554375,7.417875 L46.554375,8.73680357 C46.554375,8.947875 46.6491964,9.05555357 46.839375,9.05555357 L55.9727679,9.05555357 L55.9727679,12.1300179 L45.0265179,12.1300179 C43.9015179,12.1300179 43.3390179,11.5718036 43.3390179,10.4596607 L43.3390179,1.73555357 C43.3390179,0.658767857 43.9079464,0.117160714 45.0441964,0.117160714 L55.9727679,0.117160714 Z" id="Fill-6"></path>
                    <path d="M57.1268571,0.652339286 C57.0807857,0.558053571 57.0416786,0.470196429 57.0106071,0.385017857 C56.9816786,0.302517857 56.9548929,0.215196429 56.9318571,0.117160714 L60.7348929,0.117160714 C60.7691786,0.273053571 60.8109643,0.413946429 60.8586429,0.544660714 L64.4473929,8.842875 C64.5068571,8.97305357 64.5807857,9.067875 64.6697143,9.127875 C64.7597143,9.18680357 64.8566786,9.21519643 64.96275,9.21519643 C65.0698929,9.21519643 65.1647143,9.18894643 65.2466786,9.13644643 C65.3297143,9.08394643 65.4009643,8.985375 65.4604286,8.842875 L69.0132857,0.544660714 C69.07275,0.413946429 69.1204286,0.273053571 69.15525,0.117160714 L72.90525,0.117160714 C72.8822143,0.215196429 72.8532857,0.302517857 72.8248929,0.385017857 C72.7954286,0.470196429 72.7573929,0.558053571 72.71025,0.652339286 L68.4111429,10.174125 C68.0666786,10.9209107 67.6161429,11.4743036 67.0606071,11.8348393 C66.5023929,12.1975179 65.7979286,12.3775179 64.9461429,12.3775179 C63.2865,12.3775179 62.1261429,11.6430536 61.4629286,10.174125 L57.1268571,0.652339286 Z" id="Fill-8"></path>
                    <path d="M86.1966964,0.117160714 L86.1966964,3.29983929 L77.0627679,3.29983929 C76.873125,3.29983929 76.7788393,3.39948214 76.7788393,3.59983929 L76.7788393,4.97019643 L86.1420536,4.97019643 L86.1420536,7.417875 L76.7788393,7.417875 L76.7788393,8.73680357 C76.7788393,8.947875 76.873125,9.05555357 77.0627679,9.05555357 L86.1966964,9.05555357 L86.1966964,12.1300179 L75.2515179,12.1300179 C74.1249107,12.1300179 73.5629464,11.5718036 73.5629464,10.4596607 L73.5629464,1.73555357 C73.5629464,0.658767857 74.1313393,0.117160714 75.2670536,0.117160714 L86.1966964,0.117160714 Z" id="Fill-10"></path>
                    <path d="M96.6078214,5.1285 C96.8333571,5.1285 97.0165714,5.09475 97.1590714,5.02242857 C97.2994286,4.95064286 97.4183571,4.85742857 97.5131786,4.73903571 C97.668,4.55046429 97.7451429,4.34207143 97.7451429,4.116 C97.7451429,3.84332143 97.65675,3.61992857 97.4778214,3.44153571 C97.2887143,3.22725 96.9983571,3.12171429 96.6078214,3.12171429 L91.1890714,3.12171429 C91.0101429,3.12171429 90.9212143,3.21064286 90.9212143,3.38742857 L90.9212143,5.1285 L96.6078214,5.1285 Z M90.9212143,12.12975 L87.7047857,12.12975 L87.7047857,0.865285714 C87.7047857,0.367607143 87.9726429,0.117428571 88.5051429,0.117428571 L97.0337143,0.117428571 C97.7799643,0.117428571 98.3960357,0.2235 98.8819286,0.42975 C99.36675,0.637071429 99.7765714,0.912964286 100.108714,1.25582143 C100.403357,1.56546429 100.638,1.92117857 100.809964,2.33207143 C100.981393,2.73921429 101.067643,3.16885714 101.067643,3.61992857 C101.067643,4.10367857 100.983,4.56332143 100.818,4.99510714 C100.653536,5.42903571 100.35675,5.79760714 99.9297857,6.10617857 C100.332643,6.34296429 100.626214,6.64564286 100.809964,7.01153571 C100.99425,7.37957143 101.083714,7.90564286 101.083714,8.5935 L101.083714,10.9908214 C101.083714,11.2517143 101.088536,11.466 101.093893,11.6304643 C101.09925,11.7965357 101.113714,11.9636786 101.138893,12.12975 L97.8855,12.12975 C97.8512143,11.8693929 97.8340714,11.6015357 97.8340714,11.3315357 L97.8340714,8.93153571 C97.8340714,8.55332143 97.7328214,8.28010714 97.5308571,8.11403571 C97.3294286,7.9485 96.9919286,7.866 96.5188929,7.866 L90.9212143,7.866 L90.9212143,12.12975 Z" id="Fill-12"></path>
                </g>
            </g>
        </g>
    </g>
</svg>