<?xml version="1.0" encoding="UTF-8"?>
<svg width="111px" height="30px" viewBox="0 0 111 30" version="1.1" xmlns="http://www.w3.org/2000/svg" xmlns:xlink="http://www.w3.org/1999/xlink">
    <!-- Generator: Sketch 53.2 (72643) - https://sketchapp.com -->
    <title>Group 15 Copy</title>
    <desc>Created with Sketch.</desc>
    <g id="Page-1" stroke="none" stroke-width="1" fill="none" fill-rule="evenodd">
        <g id="RV---Template---Signature-Copy-3" transform="translate(-685.000000, -754.000000)" fill="#C72528">
            <g id="Group-15-Copy" transform="translate(685.000000, 754.000000)">
                <g id="Group-2">
                    <g id="Group">
                        <path d="M0,29.8314 L29.7522201,29.8314 L29.7522201,0 L0,0 L0,29.8314 Z M0.766023166,29.0646 L28.9861969,29.0646 L28.9861969,0.7692 L0.766023166,0.7692 L0.766023166,29.0646 Z" id="Fill-1"></path>
                        <path d="M17.0753147,13.91322 C17.3015309,13.91322 17.4864537,13.87782 17.6288861,13.80462 C17.7725154,13.73322 17.8910097,13.63722 17.9861641,13.51962 C18.1405656,13.32702 18.2195618,13.11942 18.2195618,12.89022 C18.2195618,12.61662 18.1297934,12.39042 17.9508552,12.20922 C17.7605463,11.99502 17.4679015,11.88642 17.0753147,11.88642 L11.6227857,11.88642 C11.4438475,11.88642 11.3540792,11.97762 11.3540792,12.15642 L11.3540792,13.91322 L17.0753147,13.91322 Z M11.3540792,20.97162 L8.11942664,20.97162 L8.11942664,9.61122 C8.11942664,9.10902 8.38753475,8.85762 8.92315251,8.85762 L17.5038089,8.85762 C18.2548707,8.85762 18.8748707,8.96322 19.3644073,9.17262 C19.8521486,9.38142 20.2626892,9.65982 20.5966274,10.00482 C20.8940598,10.31622 21.1292529,10.67742 21.302805,11.09022 C21.4757587,11.50182 21.5631332,11.93502 21.5631332,12.39042 C21.5631332,12.87702 21.4781525,13.34262 21.3117819,13.77822 C21.1454112,14.21502 20.8473803,14.58702 20.4182876,14.89782 C20.8228436,15.13722 21.1172838,15.44262 21.302805,15.81102 C21.4877278,16.18182 21.57989,16.71522 21.57989,17.40822 L21.57989,19.82682 C21.57989,20.08962 21.5828822,20.30502 21.5888668,20.47062 C21.5948514,20.63982 21.6086158,20.80662 21.633751,20.97162 L18.3619942,20.97162 C18.3254884,20.71122 18.3093301,20.44302 18.3093301,20.16642 L18.3093301,17.74782 C18.3093301,17.36502 18.2069942,17.09142 18.0047162,16.92402 C17.8024382,16.75602 17.461917,16.67202 16.9867432,16.67202 L11.3540792,16.67202 L11.3540792,20.97162 Z" id="Fill-2"></path>
                    </g>
                    <path d="M41.4057143,15.7542857 L45.5542857,15.7542857 L43.5142857,10.0457143 L43.48,10.0457143 L41.4057143,15.7542857 Z M42.6228571,8.57142857 L44.4228571,8.57142857 L49.2057143,20.8114286 L47.4057143,20.8114286 L46.0685714,17.1257143 L40.8914286,17.1257143 L39.52,20.8114286 L37.8571429,20.8114286 L42.6228571,8.57142857 Z M56.3257143,14.7942857 C56.1028571,13.68 55.3657143,13.0285714 54.1314286,13.0285714 C52.0228571,13.0285714 51.3714286,14.7085714 51.3714286,16.4914286 C51.3714286,18.1371429 52.1085714,19.7314286 53.96,19.7314286 C55.4,19.7314286 56.2057143,18.9428571 56.3942857,17.5714286 L57.8857143,17.5714286 C57.56,19.7657143 56.24,21 53.9771429,21 C51.2685714,21 49.8285714,19.1657143 49.8285714,16.4914286 C49.8285714,13.8342857 51.2,11.7428571 54.0114286,11.7428571 C56.0171429,11.7428571 57.6114286,12.6857143 57.8342857,14.7942857 L56.3257143,14.7942857 Z M67.5085714,20.7771429 C67.2514286,20.9314286 66.9085714,21 66.4628571,21 C65.7085714,21 65.2285714,20.6057143 65.2285714,19.6457143 C64.4228571,20.6057143 63.3428571,21 62.1085714,21 C60.5142857,21 59.1771429,20.3314286 59.1771429,18.5314286 C59.1771429,16.5257143 60.6685714,16.08 62.1771429,15.8057143 C63.7714286,15.48 65.16,15.6171429 65.16,14.5028571 C65.16,13.2171429 64.0971429,13.0285714 63.1885714,13.0285714 C61.9542857,13.0285714 61.0457143,13.4057143 60.9771429,14.7085714 L59.52,14.7085714 C59.6057143,12.5142857 61.2857143,11.7428571 63.2742857,11.7428571 C64.8685714,11.7428571 66.6,12.1028571 66.6,14.1771429 L66.6,18.7371429 C66.6,19.4228571 66.6,19.7314286 67.0628571,19.7314286 C67.1828571,19.7314286 67.3371429,19.6971429 67.5085714,19.6457143 L67.5085714,20.7771429 Z M65.1428571,16.2342857 C64.0114286,17.0914286 60.72,16.2342857 60.72,18.4285714 C60.72,19.3885714 61.5428571,19.7314286 62.4342857,19.7314286 C64.3542857,19.7314286 65.1428571,18.5485714 65.1428571,17.7257143 L65.1428571,16.2342857 Z M70.0685714,16.4571429 C70.0685714,18.12 70.9257143,19.7314286 72.8114286,19.7314286 C74.7828571,19.7314286 75.52,18.0342857 75.52,16.3885714 C75.52,14.6571429 74.7314286,13.0285714 72.7257143,13.0285714 C70.7371429,13.0285714 70.0685714,14.7257143 70.0685714,16.4571429 Z M76.9257143,20.8114286 L75.4685714,20.8114286 L75.4685714,19.6114286 L75.4342857,19.6114286 C74.9542857,20.5885714 73.84,21 72.6057143,21 C69.88,21 68.5257143,18.8571429 68.5257143,16.3542857 C68.5257143,13.8342857 69.8628571,11.7428571 72.5714286,11.7428571 C73.4628571,11.7428571 74.8,12.0857143 75.4342857,13.1314286 L75.4685714,13.1314286 L75.4685714,8.57142857 L76.9257143,8.57142857 L76.9257143,20.8114286 Z M85.4685714,15.5314286 C85.3828572,14.1428571 84.3714286,13.0285714 82.9142857,13.0285714 C81.4057143,13.0285714 80.4628572,14.16 80.3771429,15.5314286 L85.4685714,15.5314286 Z M86.8742857,18 C86.48,19.9885714 85.0914286,21 83.0857143,21 C80.2571429,21 78.92,19.0628571 78.8342857,16.3542857 C78.8342857,13.68 80.5828572,11.7428571 83,11.7428571 C86.1371429,11.7428571 87.0971429,14.6742857 87.0114286,16.8171429 L80.3771429,16.8171429 C80.3257143,18.36 81.2,19.7314286 83.1371429,19.7314286 C84.3714286,19.7314286 85.1771429,19.1657143 85.4342857,18 L86.8742857,18 Z M88.6628572,11.9485714 L90.0342857,11.9485714 L90.0342857,13.2514286 L90.0685714,13.2514286 C90.7371429,12.24 91.68,11.7428571 92.9314286,11.7428571 C94.0285714,11.7428571 95.0057143,12.1542857 95.3657143,13.2514286 C95.9657143,12.2914286 96.9771429,11.7428571 98.1428572,11.7428571 C99.9085714,11.7428571 101.091429,12.48 101.091429,14.3142857 L101.091429,20.8114286 L99.6342857,20.8114286 L99.6342857,15 C99.6342857,13.9028571 99.3428572,13.0285714 97.92,13.0285714 C96.48,13.0285714 95.6057143,13.92 95.6057143,15.2914286 L95.6057143,20.8114286 L94.1485714,20.8114286 L94.1485714,15 C94.1485714,13.8514286 93.7885714,13.0285714 92.4857143,13.0285714 C90.7714286,13.0285714 90.12,14.6057143 90.12,15.2914286 L90.12,20.8114286 L88.6628572,20.8114286 L88.6628572,11.9485714 Z M106.908571,21.9771429 C106.222857,23.6914286 105.64,24.3428571 104.337143,24.3428571 C103.994286,24.3428571 103.651429,24.3085714 103.325714,24.1885714 L103.325714,22.8514286 C103.6,22.9371429 103.891429,23.0571429 104.182857,23.0571429 C104.782857,23.0571429 105.108571,22.7828571 105.382857,22.2514286 L105.982857,20.76 L102.468571,11.9485714 L104.114286,11.9485714 L106.702857,19.2 L106.737143,19.2 L109.222857,11.9485714 L110.765714,11.9485714 L106.908571,21.9771429 Z" id="Academy"></path>
                </g>
            </g>
        </g>
    </g>
</svg>